…
## Key variables

``` r
olympic_running
```

    # A tsibble: 312 x 4 [4Y]
    # Key:       Length, Sex [14]
        Year Length Sex    Time
       <int>  <int> <chr> <dbl>
     1  1896    100 men    12  
     2  1900    100 men    11  
     3  1904    100 men    11  
     4  1908    100 men    10.8
     5  1912    100 men    10.8
     6  1916    100 men    NA  
     7  1920    100 men    10.8
     8  1924    100 men    10.6
     9  1928    100 men    10.8
    10  1932    100 men    10.3
    # ℹ 302 more rows
…
    # A tibble: 2 × 1
      Sex  
      <chr>
    1 men  
    2 women

## Working with `tsibble` objects

``` r
PBS
```

    # A tsibble: 67,596 x 9 [1M]
    # Key:       Concession, Type, ATC1, ATC2 [336]
          Month Concession   Type      ATC1  ATC1_desc ATC2  ATC2_desc Scripts  Cost
          <mth> <chr>        <chr>     <chr> <chr>     <chr> <chr>       <dbl> <dbl>
     1 1991 Jul Concessional Co-payme… A     Alimenta… A01   STOMATOL…   18228 67877
     2 1991 Aug Concessional Co-payme… A     Alimenta… A01   STOMATOL…   15327 57011
     3 1991 Sep Concessional Co-payme… A     Alimenta… A01   STOMATOL…   14775 55020
     4 1991 Oct Concessional Co-payme… A     Alimenta… A01   STOMATOL…   15380 57222
     5 1991 Nov Concessional Co-payme… A     Alimenta… A01   STOMATOL…   14371 52120
     6 1991 Dec Concessional Co-payme… A     Alimenta… A01   STOMATOL…   15028 54299
     7 1992 Jan Concessional Co-payme… A     Alimenta… A01   STOMATOL…   11040 39753
     8 1992 Feb Concessional Co-payme… A     Alimenta… A01   STOMATOL…   15165 54405
     9 1992 Mar Concessional Co-payme… A     Alimenta… A01   STOMATOL…   16898 61108
    10 1992 Apr Concessional Co-payme… A     Alimenta… A01   STOMATOL…   18141 65356
    # ℹ 67,586 more rows
…
Note that the index variable Month, and the keys Concession and Type,
would be returned even if they were not explicitly selected as they are
required for a tsibble (to ensure each row contains a unique combination
of keys and index).

``` r
a10 <- PBS |>
  filter(ATC2 == "A10") |>
  select(Month, Concession, Type, Cost) |>
  summarise(TotalC = sum(Cost)) |>
  mutate(Cost = TotalC / 1e6)
a10
```

    # A tsibble: 204 x 3 [1M]
          Month  TotalC  Cost
          <mth>   <dbl> <dbl>
     1 1991 Jul 3526591  3.53
     2 1991 Aug 3180891  3.18
     3 1991 Sep 3252221  3.25
     4 1991 Oct 3611003  3.61
     5 1991 Nov 3565869  3.57
     6 1991 Dec 4306371  4.31
     7 1992 Jan 5088335  5.09
     8 1992 Feb 2814520  2.81
     9 1992 Mar 2985811  2.99
    10 1992 Apr 3204780  3.20
    # ℹ 194 more rows
…
