…
``` r
library(fpp3)
```

``` r
a10 <- PBS |>
  filter(ATC2 == "A10") |>
  select(Month, Concession, Type, Cost) |>
  summarise(TotalC = sum(Cost)) |>
  mutate(Cost = TotalC / 1e6)
a10
```

    # A tsibble: 204 x 3 [1M]
          Month  TotalC  Cost
          <mth>   <dbl> <dbl>
     1 1991 Jul 3526591  3.53
     2 1991 Aug 3180891  3.18
     3 1991 Sep 3252221  3.25
     4 1991 Oct 3611003  3.61
     5 1991 Nov 3565869  3.57
     6 1991 Dec 4306371  4.31
     7 1992 Jan 5088335  5.09
     8 1992 Feb 2814520  2.81
     9 1992 Mar 2985811  2.99
    10 1992 Apr 3204780  3.20
    # ℹ 194 more rows
…
